{
  "lookup": {
    "eJyLrq6NBQAEOAGx": "action_listen",
    "eJyLrq7VUaguKEoti09MLsnMz7NSqIYw4vMSc1OtFKCcnMziktQ8oNrS4tQioJrMPCC3xEohvSg1taS2NhYA6dwbhQ==": "utter_greet",
    "eJyLrq7VUaguKEoti09MLsnMz7NSqIYw4vMSc1OtFKCcnMziktQ8oNrS4tQioJrMPCC3xEohvSg1taSWgBmlJSWpRfEQpbhMiAUAQvc0lw==": "utter_purpose",
    "eJyLrq7VUaguKEoti09MLsnMz7NSqIYw4vMSc1OtFKCcnMziktQ8oNrS4tQioJrMPCC3xEohvSg1taSWgBmlJSWpRfEQpZSYUFBaVJBfnIrTjFgAtgROoA==": "name_form",
    "eJyLrq7VUaguKEoti09MLsnMz7NSqIYw4vMSc1OtFKCcnMziktQ8oNrS4tQioJrMPCC3xEohvSg1taSWgBmlJSWpRfEQpZSYUFBaVJBfnEqmGSAyPi2/KBen/lgAZyBmvA==": "utter_ask_quiz_level",
    "eJyljlEKgCAQRK/iATqBV4lYJKaQTG1d+0i6e0b9RlA/www8HtOWvVElMlYyvdjgtSpXIW9maHUPZ5PAVzYncGWsr1O0GhmQ/cWRRcB0oX8MMXMMCR8dZ9IQeP71waSJlmw3cljhHlXdAcGlg5U=": "action_listen",
    "eJylkEsKwzAMRK/iA+QEvkoIwpRJMPUvsuxFje9el2TRXSDZDBp4PMTMrU+qJUYl8xIbg1btOCgYD63O4mwWhMGWDB6MDaOKVhsD0i8cRQRMB/rEkAqnmHHT8UtaI/tHP5j8pr3YDzlUuJuqi1H//H35AkPzn5I=": "reset_score",
    "eJyl0EEKwyAQBdCreICeIFcpZRDzW6RG7Ti6qOTutdhFFgFLshkc+Dycf63rRdXIKKSN2OAnVfuDvF4wqd/ibBL4ls0J3DLWt1Um9WBA1oGRRcDUo2eEmDmGhIPGd9I98HLqDzo96ZXtmxwK3EFqUOrGH0CMBKFkAu+08j+j56K9wdwv2+9oq90+w4nYww==": "reset_forms",
    "eJyl0EEKwjAQBdCr5ACeIFcRGUL6lWCb1JlJF4be3Za4cFGMtpswA5/H5J/LfDJlZEzkvIYUrSl1oOgGWPNe+iCKuGSzgJdMiMuq1twY0LlhZFUw1egRYcw8JsFOY33pmng4dIOTOz1yeFKPCf1OqlHqh9+AGAIl8Yk3Wvmdcd3kokdXf7bd0b9HrYp8Zy4vqPzz/Q==": "utter_quiz_finished",
    "eJyl0EEOgjAQBdCr9ACegKsYM2nKVxuhrTNTFhLuLqQsXBBRumlmkp+X6T+P08mMiTGQdepjaMxYBgq2R2PWpfOiCHM2C3jO+DCv2pgbAzrtGFkVTCVaI6TMKQoOGstL18h91Q1WHvTM/kUdBnQHqZ1SP/wdiCFQEhd5o5XfGdsONji05WfbHf171KJIDVP6Lhf54OWO9jt3eQOvrxKi": "utter_quiz_results",
    "eJytkEEKwjAQRa+SA3iCXkVkCO1Xg2lSZyZdWHp3U9KFi0K0dTPMwOfx5p+n+WSmgTGSbdXF0JipLBRsj8ash3eiCDmbBJwzLuRTG3NjQOcKI6mCqUSPEIbEQxTsZCyTrpH7Qw5WHvRM7kUeI/xOVKXUD34FxBAoSRt5o5XvMbYbbWjRlc+2O/pVaqHIEUzpuxi54OSO7k+4LJi8VuQub/upMQA=": "quiz_retake_form",
    "eJytkkEKwyAQRa/iAXqCXKWUQcy0lRhNZ8YsGnL3GswiixSb2I3MwOfx/Mx1mi9qGghH0EZs8I2a8gBe99iodXGWBX3KRkZKGevTKo16EKLMBUYUQYIcrSEMkYbAeJKxvHAP1Fc5aO7gFe0bHI7oTqIKpW74BRAhowCbQDut/I7R7ai9wTb/bL+jo1ILhWswue9sZL3lJ7Z/wiXB6KRKbuWI7r7d1FGz0mFtebcPLhJtSg==": "action_listen",
    "eJyl0EEKwyAQBdCreICewKuUMqThN0jNaMcxi0ruXpt0kUXAkmzEge/D+dcyX0yJgom6Xl1ga8p6Ie5GWPMbvEsKrtmcIDXjuI5qzSCAzg0jq0JojZ4RYpYYEg4a35MeQcZTf+jSk17Zvcljgj9INUrd+A1IkKCU+iA7rfzP3DE45rrd8mS/o612+wDGydjX": "reset_forms",
    "eJyl0EEOgjAQBdCr9ACegKsYM0HyJY0wrTNTFjbc3QIuXBBR2DSd5Pdl+s95PLkcBQPVjfnAlcvLhbjuUbn30Hk1cMkmhZSM5zJa5VoBbNwwkhmElugRISaJQbHTmE66BekP7VDrnR7JP6nDgG4ntVHqh78BCRRG2gRZaeV35orWM5ffzU/WO/p3qUnR78zlBbHI9BE=": "utter_quiz_finished",
    "eJyl0EEOgjAQBdCr9ACegKsY0yB+cQJMcWbKQsLdLdaFCyIKm6aT/L5M/3GcDm7sBYMvK6PAhRvzxXPZoXDvoSU1cMpGhaQMcRqtcLUANq0Y0Qzic3SP0Efpg2KjMZ/+GqTbtUOpjb9HevgWA9qN1EqpH/4KJFCY1yrIQiu/M2fUxJx+93qy3NG/S82K7mFy33kjYtIbLt+50xO+pxK2": "utter_quiz_results",
    "eJytkFEOgjAMhq+yA3gCrmJMg1ixYXTYdjxIuLvD+eADyRR8adrk35dv/3GaD24aBEeoG6PAlZvyAlz3WLn34UkNOWWjoqQMcTqtcq0g2lxgRDMUyNE9hCHKEBQ3MpYJ1yD9LodaO7hHeoDHEf1GVKHUD34BJKhooE2QlVa+x5yxJeb0u9eT9Y5+lVoougeT+85GxKQ3vPwJlwSjt4Lc6QkQyDEU": "quiz_retake_form",
    "eJytkkEOgyAQRa/CAXoCr9I0hNqpJeJgZwYXNd69WFy4sKFKN4RJPi+PnzmP00mNPcGgTS3WY6XGdNFoOqjUMjjLAhizgYFixmIcpVINAciUYQQRIJ2iJYQ+UO8ZDjLmU989dUUOhlv9DPalHQzgDqIypa74GRABg2iuPW208jvmCo1FjL/7PNnuaK/UTOESTOo7GVm0/IDbn3BRMDgpkls4YtpvO7XXLLdYa97lDU9SbV4=": "action_listen",
    "eJytkkEOgyAQRa/CAXoCr9I0BHVKiQh2ZjBpjXcvFhdd2FClG8Ikn5fHh/M0n8Q0IIxSNWy8q8SUNtKpHiqxDtYQg4vZQIAxY1wcuRIaAXjOMAIzoEzREsIQcPAEBxnLKq8e+yIHRZ28B/OUFkawB1GZUj/4GRACAUtqPG608jumBm2ci7d7H9nuaK/UQqESTOo7GRln6Abtn3BRMFgukls5rLpvf2qvmfa+rR+ZZ7y8AFHYamk=": "action_listen",
    "eJytkkEOwiAQRa/CATxBr2IMQRgrKYU6MzTRpneXhi5c1GCLG8IkPy+PP5yn+SSmAWGUSrMNvhFTvkivemjEOjhLDD5lIwGmjPVp5Ea0CMBzgRGZAWWO1hCGiEMgOMhYTnkL2Fc5KOrkI9qXdDCCO4gqlPrBL4AQCFiSDrjRyu8YZUblNZj8su2O9kotFKrB5L6zkfWW7mD+hEuC0XGV3Mph1X37U3vN2hDM9VlY4+UNMSRqVQ==": "action_listen"
  }
}